C:\zw\bitbucket\sampletest\src\test\java\com\ui\test\TestScripts.java
C:\zw\bitbucket\sampletest\src\test\java\com\api\test\TestScriptsApi.java
C:\zw\bitbucket\sampletest\src\test\java\com\objects\NabPage.java
C:\zw\bitbucket\sampletest\src\test\java\com\base\TestBaseSetup.java
C:\zw\bitbucket\sampletest\src\test\java\log\CustomListener.java
